lab_3.2.4+5/data/fchh2040.csv

Channel              :,CH1,CH2
Frequency            :,	?,	?
Period               :,  ?,	?
PK-PK                :,4.400V,20.80V
Average              :,-272.4mV,-129.2mV
Vertical pos         :,4000.000000mV,-20000.000000mV
Probe attenuation    :,1X,1X
Voltage per ADC value:,1.250000mV,6.250000mV
Time interval        :,1000.00000uS,1000.00000uS

index,CH1_Voltage(mV),CH2_Voltage(mV)
1,0.000000,-10000.000000
2,-160.000000,-9200.000000
3,-240.000000,-5200.000000
4,-320.000000,1200.000000
5,-240.000000,6400.000000
6,-240.000000,10000.000000
7,-80.000000,9600.000000
8,0.000000,6000.000000
9,0.000000,800.000000
10,80.000000,-5200.000000
11,0.000000,-9200.000000
12,-80.000000,-10000.000000
13,-160.000000,-8400.000000
14,-240.000000,-4400.000000
15,-320.000000,1200.000000
16,-240.000000,6400.000000
17,-240.000000,9600.000000
18,-160.000000,10000.000000
19,-80.000000,7600.000000
20,0.000000,3200.000000
21,80.000000,-1600.000000
22,80.000000,-6400.000000
23,0.000000,-9200.000000
24,-80.000000,-10000.000000
25,-160.000000,-8400.000000
26,-240.000000,-5200.000000
27,-240.000000,-400.000000
28,-320.000000,4000.000000
29,-240.000000,7600.000000
30,-240.000000,10000.000000
31,-160.000000,10000.000000
32,-80.000000,7600.000000
33,0.000000,4000.000000
34,80.000000,0.000000
35,80.000000,-4400.000000
36,0.000000,-8000.000000
37,0.000000,-10000.000000
38,-80.000000,-10000.000000
39,-160.000000,-8800.000000
40,-240.000000,-6000.000000
41,-240.000000,-2400.000000
42,-240.000000,1600.000000
43,-320.000000,5200.000000
44,-240.000000,8400.000000
45,-240.000000,10000.000000
46,-160.000000,10000.000000
47,-80.000000,8800.000000
48,0.000000,6400.000000
49,0.000000,3600.000000
50,80.000000,400.000000
51,80.000000,-3200.000000
52,80.000000,-6400.000000
53,0.000000,-8400.000000
54,0.000000,-10000.000000
55,-80.000000,-10400.000000
56,-80.000000,-9600.000000
57,-160.000000,-8000.000000
58,-240.000000,-6000.000000
59,-240.000000,-2800.000000
60,-320.000000,0.000000
61,-320.000000,2800.000000
62,-320.000000,5200.000000
63,-240.000000,7200.000000
64,-240.000000,9200.000000
65,-240.000000,10000.000000
66,-160.000000,10000.000000
67,-160.000000,9600.000000
68,-80.000000,8800.000000
69,-80.000000,6800.000000
70,0.000000,4800.000000
71,0.000000,2800.000000
72,80.000000,800.000000
73,80.000000,-1200.000000
74,80.000000,-4000.000000
75,80.000000,-5600.000000
76,80.000000,-7200.000000
77,80.000000,-8400.000000
78,0.000000,-9200.000000
79,0.000000,-10000.000000
80,0.000000,-10000.000000
81,-80.000000,-10000.000000
82,-80.000000,-10000.000000
83,-160.000000,-9200.000000
84,-160.000000,-8800.000000
85,-160.000000,-7600.000000
86,-240.000000,-6400.000000
87,-240.000000,-5600.000000
88,-240.000000,-4400.000000
89,-240.000000,-2800.000000
90,-240.000000,-1600.000000
91,-320.000000,-400.000000
92,-320.000000,800.000000
93,-320.000000,1600.000000
94,-320.000000,2800.000000
95,-320.000000,3600.000000
96,-320.000000,4400.000000
97,-320.000000,5200.000000
98,-320.000000,5600.000000
99,-320.000000,6000.000000
100,-320.000000,6800.000000
101,-240.000000,7200.000000
102,-240.000000,7600.000000
103,-320.000000,7600.000000
104,-240.000000,8400.000000
105,-240.000000,8800.000000
106,-240.000000,8800.000000
107,-240.000000,8800.000000
108,-240.000000,8800.000000
109,-240.000000,9200.000000
110,-240.000000,9200.000000
111,-240.000000,9200.000000
112,-240.000000,9200.000000
113,-240.000000,9200.000000
114,-240.000000,9200.000000
115,-240.000000,8800.000000
116,-240.000000,8800.000000
117,-240.000000,8800.000000
118,-240.000000,8400.000000
119,-240.000000,7600.000000
120,-240.000000,7600.000000
121,-240.000000,7200.000000
122,-320.000000,6800.000000
123,-320.000000,6400.000000
124,-320.000000,6000.000000
125,-320.000000,5200.000000
126,-320.000000,4400.000000
127,-320.000000,4000.000000
128,-320.000000,3200.000000
129,-320.000000,2000.000000
130,-320.000000,1200.000000
131,-320.000000,0.000000
132,-240.000000,-1200.000000
133,-240.000000,-2400.000000
134,-240.000000,-4000.000000
135,-240.000000,-5200.000000
136,-240.000000,-6000.000000
137,-240.000000,-7200.000000
138,-160.000000,-8400.000000
139,-160.000000,-9200.000000
140,-80.000000,-9600.000000
141,-80.000000,-10000.000000
142,-80.000000,-10400.000000
143,0.000000,-10000.000000
144,0.000000,-9600.000000
145,80.000000,-8800.000000
146,80.000000,-7600.000000
147,80.000000,-6000.000000
148,80.000000,-4400.000000
149,80.000000,-2000.000000
150,80.000000,0.000000
151,0.000000,2000.000000
152,0.000000,4400.000000
153,0.000000,6000.000000
154,-80.000000,7600.000000
155,-80.000000,9200.000000
156,-160.000000,10000.000000
157,-160.000000,10000.000000
158,-240.000000,9600.000000
159,-240.000000,8400.000000
160,-320.000000,6000.000000
161,-320.000000,3600.000000
162,-320.000000,800.000000
163,-240.000000,-2000.000000
164,-240.000000,-4800.000000
165,-160.000000,-7200.000000
166,-160.000000,-9200.000000
167,-80.000000,-10000.000000
168,0.000000,-10000.000000
169,0.000000,-9200.000000
170,80.000000,-7200.000000
171,80.000000,-4800.000000
172,80.000000,-800.000000
173,0.000000,2400.000000
174,0.000000,5600.000000
175,-80.000000,8400.000000
176,-160.000000,10000.000000
177,-240.000000,10000.000000
178,-240.000000,8800.000000
179,-320.000000,6400.000000
180,-320.000000,3200.000000
181,-240.000000,-800.000000
182,-240.000000,-4800.000000
183,-160.000000,-8000.000000
184,-80.000000,-9600.000000
185,0.000000,-10000.000000
186,0.000000,-8800.000000
187,80.000000,-6000.000000
188,80.000000,-1600.000000
189,0.000000,2800.000000
190,0.000000,6400.000000
191,-80.000000,9200.000000
192,-160.000000,10000.000000
193,-240.000000,8800.000000
194,-320.000000,5600.000000
195,-320.000000,1200.000000
196,-240.000000,-3200.000000
197,-160.000000,-7600.000000
198,-80.000000,-10000.000000
199,0.000000,-10000.000000
200,80.000000,-7600.000000
201,80.000000,-3200.000000
202,80.000000,1600.000000
203,0.000000,6000.000000
204,-160.000000,9600.000000
205,-240.000000,10000.000000
206,-320.000000,7600.000000
207,-320.000000,3200.000000
208,-240.000000,-2000.000000
209,-160.000000,-7200.000000
210,-80.000000,-10000.000000
211,0.000000,-9600.000000
212,80.000000,-6800.000000
213,80.000000,-1200.000000
214,0.000000,4000.000000
215,-80.000000,8800.000000
216,-240.000000,10000.000000
217,-320.000000,8400.000000
218,-320.000000,3200.000000
219,-240.000000,-2800.000000
220,-160.000000,-8000.000000
221,-80.000000,-10400.000000
222,0.000000,-8800.000000
223,80.000000,-4000.000000
224,0.000000,2400.000000
225,-80.000000,7600.000000
226,-160.000000,10000.000000
227,-240.000000,8400.000000
228,-320.000000,2800.000000
229,-240.000000,-4000.000000
230,-160.000000,-8800.000000
231,0.000000,-10000.000000
232,80.000000,-7200.000000
233,80.000000,-800.000000
234,0.000000,5600.000000
235,-160.000000,10000.000000
236,-240.000000,9200.000000
237,-320.000000,4000.000000
238,-240.000000,-2800.000000
239,-160.000000,-8800.000000
240,0.000000,-10000.000000
241,80.000000,-6800.000000
242,80.000000,400.000000
243,-80.000000,6800.000000
244,-160.000000,10000.000000
245,-320.000000,7200.000000
246,-320.000000,800.000000
247,-240.000000,-6400.000000
248,-80.000000,-10000.000000
249,80.000000,-8000.000000
250,80.000000,-1600.000000
251,0.000000,6000.000000
252,-160.000000,10000.000000
253,-320.000000,7600.000000
254,-320.000000,1200.000000
255,-240.000000,-6800.000000
256,-80.000000,-10000.000000
257,80.000000,-7600.000000
258,80.000000,400.000000
259,-80.000000,7200.000000
260,-240.000000,10000.000000
261,-320.000000,5600.000000
262,-240.000000,-2400.000000
263,-160.000000,-9200.000000
264,0.000000,-9600.000000
265,80.000000,-3200.000000
266,0.000000,5200.000000
267,-160.000000,10000.000000
268,-320.000000,7200.000000
269,-320.000000,-400.000000
270,-160.000000,-8400.000000
271,0.000000,-10000.000000
272,80.000000,-4000.000000
273,0.000000,4800.000000
274,-160.000000,10000.000000
275,-320.000000,6800.000000
276,-320.000000,-1200.000000
277,-160.000000,-8800.000000
278,0.000000,-9200.000000
279,80.000000,-1600.000000
280,-80.000000,6800.000000
281,-240.000000,10000.000000
282,-320.000000,4400.000000
283,-240.000000,-5200.000000
284,-80.000000,-10400.000000
285,80.000000,-6800.000000
286,80.000000,2800.000000
287,-160.000000,9600.000000
288,-320.000000,7600.000000
289,-320.000000,-1600.000000
290,-160.000000,-9200.000000
291,80.000000,-8800.000000
292,80.000000,400.000000
293,-80.000000,8800.000000
294,-240.000000,8800.000000
295,-320.000000,400.000000
296,-160.000000,-8800.000000
297,0.000000,-9200.000000
298,80.000000,-400.000000
299,-80.000000,8800.000000
300,-240.000000,8800.000000
301,-320.000000,-400.000000
302,-160.000000,-9200.000000
303,80.000000,-8400.000000
304,80.000000,1200.000000
305,-160.000000,9600.000000
306,-320.000000,7200.000000
307,-320.000000,-2800.000000
308,-80.000000,-10000.000000
309,80.000000,-6400.000000
310,0.000000,4400.000000
311,-240.000000,10000.000000
312,-320.000000,4000.000000
313,-240.000000,-6800.000000
314,0.000000,-10000.000000
315,80.000000,-1200.000000
316,-80.000000,8800.000000
317,-320.000000,8400.000000
318,-240.000000,-2000.000000
319,-80.000000,-10000.000000
320,80.000000,-6000.000000
321,0.000000,5200.000000
322,-240.000000,10000.000000
323,-320.000000,2000.000000
324,-160.000000,-8800.000000
325,80.000000,-8400.000000
326,0.000000,2800.000000
327,-160.000000,10000.000000
328,-320.000000,4000.000000
329,-160.000000,-7600.000000
330,80.000000,-9200.000000
331,80.000000,1200.000000
332,-160.000000,10000.000000
333,-320.000000,4800.000000
334,-240.000000,-7200.000000
335,0.000000,-9200.000000
336,80.000000,1200.000000
337,-160.000000,10000.000000
338,-320.000000,4400.000000
339,-240.000000,-7600.000000
340,80.000000,-8800.000000
341,80.000000,2400.000000
342,-160.000000,10000.000000
343,-320.000000,2800.000000
344,-160.000000,-8800.000000
345,80.000000,-7600.000000
346,0.000000,4800.000000
347,-240.000000,9600.000000
348,-320.000000,-400.000000
349,-80.000000,-10000.000000
350,80.000000,-4400.000000
351,-80.000000,8400.000000
352,-320.000000,7200.000000
353,-240.000000,-5200.000000
354,0.000000,-9600.000000
355,80.000000,1200.000000
356,-160.000000,10000.000000
357,-320.000000,2400.000000
358,-80.000000,-9200.000000
359,80.000000,-6000.000000
360,-80.000000,6800.000000
361,-320.000000,8400.000000
362,-240.000000,-4800.000000
363,0.000000,-9600.000000
364,80.000000,1600.000000
365,-240.000000,10000.000000
366,-320.000000,1200.000000
367,-80.000000,-10000.000000
368,80.000000,-4000.000000
369,-80.000000,8800.000000
370,-320.000000,5600.000000
371,-160.000000,-8000.000000
372,80.000000,-7600.000000
373,0.000000,6000.000000
374,-320.000000,8800.000000
375,-240.000000,-4800.000000
376,0.000000,-9200.000000
377,0.000000,3200.000000
378,-240.000000,9600.000000
379,-320.000000,-2000.000000
380,0.000000,-10000.000000
381,80.000000,800.000000
382,-240.000000,10000.000000
383,-320.000000,0.000000
384,-80.000000,-10400.000000
385,80.000000,-400.000000
386,-160.000000,10000.000000
387,-320.000000,800.000000
388,-80.000000,-10000.000000
389,80.000000,-1200.000000
390,-160.000000,10000.000000
391,-320.000000,1200.000000
392,-80.000000,-10000.000000
393,80.000000,-800.000000
394,-160.000000,10000.000000
395,-320.000000,400.000000
396,0.000000,-10400.000000
397,80.000000,400.000000
398,-240.000000,10000.000000
399,-320.000000,-1200.000000
400,0.000000,-10000.000000
401,80.000000,2400.000000
402,-240.000000,9600.000000
403,-240.000000,-4000.000000
404,0.000000,-9200.000000
405,0.000000,5200.000000
406,-320.000000,8400.000000
407,-240.000000,-6800.000000
408,80.000000,-6800.000000
409,-80.000000,8400.000000
410,-320.000000,4800.000000
411,-160.000000,-9200.000000
412,80.000000,-2800.000000
413,-160.000000,10000.000000
414,-320.000000,0.000000
415,0.000000,-10000.000000
416,80.000000,2800.000000
417,-240.000000,9200.000000
418,-240.000000,-6000.000000
419,80.000000,-7600.000000
420,-80.000000,7600.000000
421,-320.000000,4400.000000
422,-160.000000,-10000.000000
423,80.000000,-1200.000000
424,-240.000000,10000.000000
425,-320.000000,-2800.000000
426,80.000000,-9200.000000
427,0.000000,6400.000000
428,-320.000000,6000.000000
429,-160.000000,-9200.000000
430,80.000000,-2400.000000
431,-240.000000,10000.000000
432,-320.000000,-2400.000000
433,80.000000,-9200.000000
434,0.000000,6400.000000
435,-320.000000,5200.000000
436,-80.000000,-9600.000000
437,80.000000,-400.000000
438,-240.000000,10000.000000
439,-240.000000,-5200.000000
440,80.000000,-7600.000000
441,-80.000000,8800.000000
442,-320.000000,2000.000000
443,0.000000,-10000.000000
444,80.000000,3600.000000
445,-320.000000,7600.000000
446,-160.000000,-8800.000000
447,80.000000,-2400.000000
448,-240.000000,10000.000000
449,-320.000000,-4400.000000
450,80.000000,-7600.000000
451,-80.000000,9200.000000
452,-320.000000,1200.000000
453,0.000000,-10000.000000
454,0.000000,5600.000000
455,-320.000000,5600.000000
456,-80.000000,-10000.000000
457,80.000000,1200.000000
458,-320.000000,8800.000000
459,-160.000000,-8000.000000
460,80.000000,-2400.000000
461,-240.000000,10000.000000
462,-240.000000,-5600.000000
463,80.000000,-6000.000000
464,-160.000000,10000.000000
465,-320.000000,-2000.000000
466,80.000000,-8000.000000
467,-80.000000,8800.000000
468,-320.000000,400.000000
469,80.000000,-9200.000000
470,-80.000000,7600.000000
471,-320.000000,2400.000000
472,0.000000,-10000.000000
473,0.000000,6000.000000
474,-320.000000,4000.000000
475,0.000000,-10400.000000
476,0.000000,4800.000000
477,-320.000000,4800.000000
478,-80.000000,-10400.000000
479,0.000000,4400.000000
480,-320.000000,5600.000000
481,-80.000000,-10000.000000
482,80.000000,4000.000000
483,-320.000000,5600.000000
484,-80.000000,-10000.000000
485,0.000000,4000.000000
486,-320.000000,5200.000000
487,0.000000,-10000.000000
488,0.000000,4800.000000
489,-320.000000,4800.000000
490,0.000000,-10000.000000
491,0.000000,5600.000000
492,-320.000000,3600.000000
493,0.000000,-10000.000000
494,0.000000,7200.000000
495,-320.000000,1600.000000
496,0.000000,-9200.000000
497,-80.000000,8800.000000
498,-320.000000,-800.000000
499,80.000000,-8000.000000
500,-160.000000,9600.000000
501,-320.000000,-4000.000000
502,80.000000,-6000.000000
503,-240.000000,10000.000000
504,-240.000000,-6800.000000
505,160.000000,-2400.000000
506,-240.000000,9200.000000
507,-160.000000,-9200.000000
508,80.000000,1600.000000
509,-320.000000,6400.000000
510,0.000000,-10400.000000
511,0.000000,5600.000000
512,-320.000000,2400.000000
513,80.000000,-9200.000000
514,-80.000000,9200.000000
515,-320.000000,-2800.000000
516,80.000000,-5600.000000
517,-240.000000,10000.000000
518,-160.000000,-8000.000000
519,80.000000,400.000000
520,-320.000000,7200.000000
521,-80.000000,-10000.000000
522,0.000000,6000.000000
523,-320.000000,1600.000000
524,80.000000,-8400.000000
525,-160.000000,10000.000000
526,-240.000000,-5600.000000
527,80.000000,-2400.000000
528,-320.000000,8800.000000
529,-80.000000,-10000.000000
530,0.000000,4800.000000
531,-320.000000,2400.000000
532,80.000000,-8800.000000
533,-160.000000,10000.000000
534,-240.000000,-6000.000000
535,80.000000,-1600.000000
536,-320.000000,7600.000000
537,-80.000000,-10400.000000
538,0.000000,6800.000000
539,-320.000000,-400.000000
540,80.000000,-6400.000000
541,-240.000000,10000.000000
542,-160.000000,-8800.000000
543,80.000000,3200.000000
544,-320.000000,3600.000000
545,80.000000,-9200.000000
546,-160.000000,10000.000000
547,-240.000000,-6800.000000
548,80.000000,0.000000
549,-320.000000,6000.000000
550,0.000000,-10000.000000
551,-80.000000,9200.000000
552,-240.000000,-5200.000000
553,80.000000,-1600.000000
554,-320.000000,7200.000000
555,0.000000,-10000.000000
556,-80.000000,8800.000000
557,-320.000000,-4400.000000
558,80.000000,-2000.000000
559,-320.000000,7200.000000
560,0.000000,-10000.000000
561,-80.000000,9200.000000
562,-240.000000,-5200.000000
563,80.000000,-800.000000
564,-320.000000,6000.000000
565,0.000000,-9600.000000
566,-160.000000,10000.000000
567,-240.000000,-7200.000000
568,80.000000,1600.000000
569,-320.000000,3600.000000
570,80.000000,-8400.000000
571,-240.000000,10000.000000
572,-160.000000,-9200.000000
573,0.000000,5200.000000
574,-320.000000,-400.000000
575,160.000000,-5200.000000
576,-320.000000,8800.000000
577,0.000000,-10000.000000
578,-80.000000,8800.000000
579,-240.000000,-6000.000000
580,80.000000,800.000000
581,-400.000000,4000.000000
582,80.000000,-8000.000000
583,-240.000000,10000.000000
584,-80.000000,-10000.000000
585,0.000000,7200.000000
586,-320.000000,-3200.000000
587,80.000000,-1200.000000
588,-320.000000,5200.000000
589,80.000000,-8800.000000
590,-240.000000,10000.000000
591,-80.000000,-9600.000000
592,0.000000,7200.000000
593,-320.000000,-4000.000000
594,80.000000,-400.000000
595,-400.000000,4000.000000
596,80.000000,-8000.000000
597,-240.000000,9600.000000
598,-80.000000,-10400.000000
599,-80.000000,9200.000000
600,-240.000000,-6800.000000
601,80.000000,3200.000000
602,-320.000000,400.000000
603,160.000000,-4400.000000
604,-320.000000,6800.000000
605,80.000000,-9200.000000
606,-240.000000,10000.000000
607,-80.000000,-10000.000000
608,-80.000000,8400.000000
609,-240.000000,-6400.000000
610,80.000000,2800.000000
611,-320.000000,400.000000
612,160.000000,-3200.000000
613,-320.000000,6000.000000
614,80.000000,-8400.000000
615,-240.000000,9600.000000
616,0.000000,-10000.000000
617,-160.000000,9600.000000
618,-160.000000,-8800.000000
619,0.000000,6400.000000
620,-240.000000,-4800.000000
621,80.000000,1600.000000
622,-320.000000,800.000000
623,160.000000,-3200.000000
624,-320.000000,5200.000000
625,80.000000,-7600.000000
626,-320.000000,8800.000000
627,0.000000,-10000.000000
628,-240.000000,10000.000000
629,-80.000000,-10000.000000
630,-80.000000,9200.000000
631,-160.000000,-8400.000000
632,0.000000,6800.000000
633,-240.000000,-5600.000000
634,80.000000,3600.000000
635,-320.000000,-1600.000000
636,80.000000,0.000000
637,-320.000000,2000.000000
638,80.000000,-4000.000000
639,-320.000000,4800.000000
640,80.000000,-6800.000000
641,-320.000000,7200.000000
642,80.000000,-8800.000000
643,-320.000000,9200.000000
644,0.000000,-10000.000000
645,-240.000000,10000.000000
646,0.000000,-10000.000000
647,-160.000000,10000.000000
648,-80.000000,-10000.000000
649,-160.000000,9600.000000
650,-160.000000,-9200.000000
651,-80.000000,8800.000000
652,-160.000000,-8400.000000
653,0.000000,7600.000000
654,-240.000000,-7600.000000
655,0.000000,6400.000000
656,-240.000000,-6400.000000
657,0.000000,5600.000000
658,-240.000000,-5200.000000
659,80.000000,4400.000000
660,-320.000000,-4400.000000
661,80.000000,3600.000000
662,-320.000000,-3200.000000
663,80.000000,3200.000000
664,-320.000000,-2800.000000
665,80.000000,2800.000000
666,-320.000000,-2400.000000
667,80.000000,2400.000000
668,-320.000000,-2400.000000
669,80.000000,2400.000000
670,-320.000000,-2400.000000
671,80.000000,2800.000000
672,-320.000000,-2800.000000
673,80.000000,3200.000000
674,-320.000000,-4000.000000
675,80.000000,3600.000000
676,-320.000000,-4400.000000
677,80.000000,4400.000000
678,-240.000000,-5200.000000
679,0.000000,5600.000000
680,-240.000000,-6400.000000
681,0.000000,6400.000000
682,-240.000000,-7600.000000
683,-80.000000,7600.000000
684,-160.000000,-8400.000000
685,-80.000000,8800.000000
686,-160.000000,-9200.000000
687,-160.000000,9600.000000
688,-80.000000,-10000.000000
689,-160.000000,10000.000000
690,0.000000,-10000.000000
691,-240.000000,10000.000000
692,80.000000,-10000.000000
693,-320.000000,9200.000000
694,80.000000,-8400.000000
695,-320.000000,7200.000000
696,160.000000,-6400.000000
697,-400.000000,4800.000000
698,160.000000,-3200.000000
699,-320.000000,1600.000000
700,160.000000,0.000000
701,-320.000000,-2000.000000
702,80.000000,3600.000000
703,-240.000000,-5600.000000
704,0.000000,6800.000000
705,-160.000000,-8800.000000
706,-80.000000,9600.000000
707,-80.000000,-10000.000000
708,-240.000000,10000.000000
709,0.000000,-9600.000000
710,-320.000000,8800.000000
711,80.000000,-7600.000000
712,-400.000000,5200.000000
713,160.000000,-3200.000000
714,-320.000000,400.000000
