lab_3.2.4+5/data/fchh410.csv

Channel              :,CH1,CH2
Frequency            :,	?,	?
Period               :,  ?,	?
PK-PK                :,16.60V,20.80V
Average              :,-188.2mV,98.68mV
Vertical pos         :,10000.000000mV,-20000.000000mV
Probe attenuation    :,1X,1X
Voltage per ADC value:,3.125000mV,6.250000mV
Time interval        :,1000.00000uS,1000.00000uS

index,CH1_Voltage(mV),CH2_Voltage(mV)
1,-400.000000,-400.000000
2,-200.000000,800.000000
3,-400.000000,-1200.000000
4,-200.000000,1600.000000
5,-400.000000,-2000.000000
6,-200.000000,2800.000000
7,-200.000000,-3200.000000
8,-400.000000,4000.000000
9,-200.000000,-4800.000000
10,-400.000000,5200.000000
11,-200.000000,-6400.000000
12,-400.000000,6800.000000
13,-200.000000,-7600.000000
14,-400.000000,8400.000000
15,-200.000000,-8800.000000
16,-400.000000,9200.000000
17,-200.000000,-10000.000000
18,-400.000000,10000.000000
19,0.000000,-10400.000000
20,-600.000000,10000.000000
21,0.000000,-10000.000000
22,-400.000000,9200.000000
23,-200.000000,-8800.000000
24,-400.000000,7600.000000
25,0.000000,-6800.000000
26,-400.000000,4800.000000
27,-200.000000,-3200.000000
28,-400.000000,1600.000000
29,-200.000000,0.000000
30,-200.000000,-2000.000000
31,-400.000000,4000.000000
32,-200.000000,-6000.000000
33,-400.000000,7200.000000
34,-200.000000,-8800.000000
35,-400.000000,9600.000000
36,0.000000,-10000.000000
37,-600.000000,10000.000000
38,0.000000,-9600.000000
39,-400.000000,8400.000000
40,-200.000000,-6800.000000
41,-400.000000,4000.000000
42,-200.000000,-1600.000000
43,-400.000000,-800.000000
44,-200.000000,3600.000000
45,-200.000000,-6400.000000
46,-400.000000,7600.000000
47,0.000000,-9600.000000
48,-600.000000,10000.000000
49,0.000000,-10000.000000
50,-600.000000,8800.000000
51,0.000000,-6800.000000
52,-400.000000,4000.000000
53,-200.000000,-800.000000
54,-200.000000,-2400.000000
55,-400.000000,5600.000000
56,-200.000000,-8400.000000
57,-600.000000,9600.000000
58,0.000000,-10400.000000
59,-600.000000,9200.000000
60,-200.000000,-7200.000000
61,-400.000000,4000.000000
62,-200.000000,-400.000000
63,-200.000000,-3200.000000
64,-400.000000,6400.000000
65,-200.000000,-9200.000000
66,-600.000000,10000.000000
67,0.000000,-9600.000000
68,-400.000000,7200.000000
69,-200.000000,-4400.000000
70,-400.000000,0.000000
71,-400.000000,4000.000000
72,-200.000000,-8000.000000
73,-400.000000,9600.000000
74,0.000000,-10000.000000
75,-600.000000,8400.000000
76,-200.000000,-5200.000000
77,-400.000000,400.000000
78,-200.000000,4000.000000
79,-200.000000,-8000.000000
80,-600.000000,10000.000000
81,0.000000,-10000.000000
82,-400.000000,7200.000000
83,-200.000000,-3200.000000
84,-400.000000,-1600.000000
85,-400.000000,6000.000000
86,-200.000000,-9600.000000
87,-600.000000,10000.000000
88,0.000000,-8400.000000
89,-400.000000,4000.000000
90,-200.000000,1200.000000
91,-200.000000,-6400.000000
92,-400.000000,9600.000000
93,0.000000,-10000.000000
94,-400.000000,7200.000000
95,-200.000000,-2800.000000
96,-200.000000,-2800.000000
97,-400.000000,7600.000000
98,0.000000,-10000.000000
99,-600.000000,9200.000000
100,-200.000000,-5200.000000
101,-400.000000,-400.000000
102,-400.000000,6000.000000
103,0.000000,-9600.000000
104,-600.000000,9600.000000
105,0.000000,-6400.000000
106,-400.000000,0.000000
107,-400.000000,5600.000000
108,-200.000000,-9600.000000
109,-600.000000,9600.000000
110,0.000000,-6000.000000
111,-400.000000,-400.000000
112,-400.000000,6400.000000
113,0.000000,-10000.000000
114,-600.000000,9200.000000
115,-200.000000,-4800.000000
116,-400.000000,-2000.000000
117,-400.000000,7600.000000
118,0.000000,-10000.000000
119,-600.000000,7200.000000
120,-200.000000,-1600.000000
121,-200.000000,-5600.000000
122,-400.000000,9600.000000
123,0.000000,-9200.000000
124,-400.000000,4000.000000
125,-200.000000,2800.000000
126,-200.000000,-8800.000000
127,-600.000000,10000.000000
128,0.000000,-6000.000000
129,-400.000000,-1200.000000
130,-400.000000,7600.000000
131,0.000000,-10000.000000
132,-400.000000,6400.000000
133,-200.000000,400.000000
134,-200.000000,-7600.000000
135,-600.000000,10000.000000
136,0.000000,-6800.000000
137,-400.000000,-800.000000
138,-400.000000,7600.000000
139,0.000000,-10000.000000
140,-400.000000,6000.000000
141,-200.000000,1600.000000
142,-200.000000,-8800.000000
143,-600.000000,10000.000000
144,-200.000000,-4800.000000
145,-200.000000,-4000.000000
146,-400.000000,9600.000000
147,0.000000,-9200.000000
148,-400.000000,2400.000000
149,-400.000000,5600.000000
150,0.000000,-10000.000000
151,-600.000000,6800.000000
152,-200.000000,1200.000000
153,-200.000000,-8800.000000
154,-600.000000,9600.000000
155,-200.000000,-3200.000000
156,-200.000000,-5600.000000
157,-600.000000,10000.000000
158,0.000000,-7200.000000
159,-400.000000,-1600.000000
160,-400.000000,9200.000000
161,0.000000,-9200.000000
162,-400.000000,1600.000000
163,-400.000000,6800.000000
164,0.000000,-10000.000000
165,-400.000000,4400.000000
166,-200.000000,4800.000000
167,0.000000,-10000.000000
168,-400.000000,6400.000000
169,-200.000000,2400.000000
170,0.000000,-9600.000000
171,-400.000000,7600.000000
172,-200.000000,800.000000
173,-200.000000,-9200.000000
174,-600.000000,8800.000000
175,-200.000000,-400.000000
176,-200.000000,-8800.000000
177,-600.000000,9200.000000
178,-200.000000,-1200.000000
179,-200.000000,-8400.000000
180,-600.000000,9600.000000
181,-200.000000,-1200.000000
182,-200.000000,-8400.000000
183,-600.000000,9200.000000
184,-200.000000,-1200.000000
185,-200.000000,-8400.000000
186,-600.000000,9200.000000
187,-200.000000,-400.000000
188,-200.000000,-8800.000000
189,-600.000000,8800.000000
190,-200.000000,800.000000
191,-200.000000,-9600.000000
192,-600.000000,7200.000000
193,-200.000000,2800.000000
194,0.000000,-10000.000000
195,-600.000000,5600.000000
196,-400.000000,4800.000000
197,0.000000,-10000.000000
198,-400.000000,3200.000000
199,-400.000000,6800.000000
200,0.000000,-9600.000000
201,-400.000000,400.000000
202,-400.000000,9200.000000
203,0.000000,-7600.000000
204,-200.000000,-3200.000000
205,-600.000000,10000.000000
206,-200.000000,-4800.000000
207,-200.000000,-7200.000000
208,-600.000000,9600.000000
209,-200.000000,0.000000
210,0.000000,-9600.000000
211,-400.000000,6400.000000
212,-400.000000,4800.000000
213,0.000000,-10000.000000
214,-400.000000,1600.000000
215,-400.000000,8800.000000
216,0.000000,-7600.000000
217,-200.000000,-4400.000000
218,-600.000000,10000.000000
219,-200.000000,-2400.000000
220,-200.000000,-8800.000000
221,-600.000000,7200.000000
222,-400.000000,4400.000000
223,0.000000,-10000.000000
224,-400.000000,1200.000000
225,-400.000000,9600.000000
226,0.000000,-6400.000000
227,-200.000000,-6000.000000
228,-600.000000,9600.000000
229,-200.000000,1200.000000
230,0.000000,-10000.000000
231,-400.000000,3600.000000
232,-400.000000,8400.000000
233,0.000000,-7600.000000
234,-200.000000,-5200.000000
235,-600.000000,9600.000000
236,-200.000000,400.000000
237,0.000000,-10000.000000
238,-400.000000,3200.000000
239,-400.000000,8800.000000
240,0.000000,-7200.000000
241,-200.000000,-6400.000000
242,-600.000000,9200.000000
243,-200.000000,2800.000000
244,0.000000,-10000.000000
245,-400.000000,400.000000
246,-400.000000,10000.000000
247,-200.000000,-4000.000000
248,0.000000,-8800.000000
249,-600.000000,6000.000000
250,-400.000000,6800.000000
251,0.000000,-8400.000000
252,-200.000000,-5200.000000
253,-600.000000,9200.000000
254,-200.000000,2800.000000
255,0.000000,-10000.000000
256,-400.000000,-800.000000
257,-600.000000,10000.000000
258,-200.000000,-1200.000000
259,0.000000,-10000.000000
260,-400.000000,2800.000000
261,-400.000000,9600.000000
262,-200.000000,-4400.000000
263,0.000000,-9200.000000
264,-400.000000,4800.000000
265,-400.000000,8400.000000
266,0.000000,-6400.000000
267,-200.000000,-8000.000000
268,-600.000000,6400.000000
269,-400.000000,7200.000000
270,0.000000,-7200.000000
271,-200.000000,-7200.000000
272,-600.000000,6800.000000
273,-400.000000,6800.000000
274,0.000000,-7600.000000
275,-200.000000,-7200.000000
276,-400.000000,6800.000000
277,-400.000000,6800.000000
278,0.000000,-7200.000000
279,-200.000000,-7600.000000
280,-400.000000,6400.000000
281,-400.000000,7600.000000
282,0.000000,-6000.000000
283,-200.000000,-8800.000000
284,-400.000000,4800.000000
285,-400.000000,9200.000000
286,-200.000000,-4000.000000
287,0.000000,-9600.000000
288,-400.000000,2000.000000
289,-600.000000,10000.000000
290,-200.000000,-400.000000
291,0.000000,-10400.000000
292,-400.000000,-1600.000000
293,-600.000000,10000.000000
294,-200.000000,3600.000000
295,0.000000,-9200.000000
296,-200.000000,-6000.000000
297,-600.000000,7200.000000
298,-400.000000,7600.000000
299,0.000000,-5600.000000
300,-200.000000,-9200.000000
301,-400.000000,2400.000000
302,-600.000000,10000.000000
303,-200.000000,400.000000
304,0.000000,-10000.000000
305,-200.000000,-4000.000000
306,-600.000000,8800.000000
307,-400.000000,6800.000000
308,0.000000,-6000.000000
309,0.000000,-9200.000000
310,-400.000000,2000.000000
311,-600.000000,10000.000000
312,-200.000000,2000.000000
313,0.000000,-9200.000000
314,-200.000000,-6400.000000
315,-600.000000,6400.000000
316,-400.000000,9200.000000
317,-200.000000,-2000.000000
318,0.000000,-10000.000000
319,-200.000000,-2800.000000
320,-600.000000,8800.000000
321,-400.000000,7200.000000
322,0.000000,-5200.000000
323,0.000000,-10000.000000
324,-400.000000,-400.000000
325,-600.000000,9600.000000
326,-400.000000,5600.000000
327,0.000000,-6400.000000
328,0.000000,-9600.000000
329,-400.000000,400.000000
330,-600.000000,9600.000000
331,-400.000000,5600.000000
332,0.000000,-6400.000000
333,0.000000,-9600.000000
334,-400.000000,-400.000000
335,-600.000000,9600.000000
336,-400.000000,6400.000000
337,0.000000,-4800.000000
338,0.000000,-10000.000000
339,-400.000000,-2400.000000
340,-600.000000,8400.000000
341,-400.000000,8400.000000
342,-200.000000,-2000.000000
343,0.000000,-10000.000000
344,-200.000000,-5600.000000
345,-600.000000,5600.000000
346,-600.000000,10000.000000
347,-200.000000,2400.000000
348,0.000000,-8400.000000
349,0.000000,-8800.000000
350,-400.000000,800.000000
351,-600.000000,9600.000000
352,-400.000000,7200.000000
353,-200.000000,-3200.000000
354,0.000000,-10000.000000
355,-200.000000,-5600.000000
356,-400.000000,4800.000000
357,-600.000000,10000.000000
358,-200.000000,3600.000000
359,0.000000,-6800.000000
360,0.000000,-10000.000000
361,-200.000000,-2800.000000
362,-600.000000,6800.000000
363,-400.000000,9600.000000
364,-200.000000,2000.000000
365,0.000000,-7600.000000
366,0.000000,-9600.000000
367,-400.000000,-2000.000000
368,-600.000000,7200.000000
369,-600.000000,9600.000000
370,-200.000000,2400.000000
371,0.000000,-7200.000000
372,0.000000,-10000.000000
373,-200.000000,-3200.000000
374,-600.000000,6400.000000
375,-600.000000,10000.000000
376,-400.000000,4400.000000
377,0.000000,-5200.000000
378,0.000000,-10000.000000
379,-200.000000,-6400.000000
380,-400.000000,3200.000000
381,-600.000000,9600.000000
382,-400.000000,7600.000000
383,-200.000000,-800.000000
384,0.000000,-8800.000000
385,0.000000,-9600.000000
386,-200.000000,-2400.000000
387,-600.000000,6400.000000
388,-600.000000,10000.000000
389,-400.000000,5600.000000
390,0.000000,-3200.000000
391,0.000000,-9600.000000
392,-200.000000,-8800.000000
393,-400.000000,-800.000000
394,-600.000000,7200.000000
395,-600.000000,10000.000000
396,-400.000000,5200.000000
397,-200.000000,-3200.000000
398,0.000000,-9200.000000
399,0.000000,-9200.000000
400,-400.000000,-2400.000000
401,-600.000000,5600.000000
402,-600.000000,10000.000000
403,-400.000000,7200.000000
404,-200.000000,-400.000000
405,0.000000,-7600.000000
406,0.000000,-10000.000000
407,-200.000000,-6400.000000
408,-400.000000,1600.000000
409,-600.000000,8400.000000
410,-600.000000,10000.000000
411,-400.000000,5200.000000
412,0.000000,-2400.000000
413,0.000000,-8800.000000
414,0.000000,-10000.000000
415,-200.000000,-5600.000000
416,-400.000000,2000.000000
417,-600.000000,8400.000000
418,-600.000000,10000.000000
419,-400.000000,6000.000000
420,-200.000000,-800.000000
421,0.000000,-7600.000000
422,0.000000,-10400.000000
423,-200.000000,-7600.000000
424,-400.000000,-1200.000000
425,-600.000000,5600.000000
426,-600.000000,10000.000000
427,-600.000000,9200.000000
428,-400.000000,4000.000000
429,-200.000000,-2800.000000
430,0.000000,-8400.000000
431,0.000000,-10400.000000
432,-200.000000,-7600.000000
433,-200.000000,-1200.000000
434,-600.000000,5200.000000
435,-600.000000,9600.000000
436,-600.000000,9600.000000
437,-400.000000,5600.000000
438,-200.000000,-400.000000
439,0.000000,-6400.000000
440,0.000000,-9600.000000
441,0.000000,-9600.000000
442,-200.000000,-6000.000000
443,-400.000000,400.000000
444,-400.000000,6000.000000
445,-600.000000,9600.000000
446,-600.000000,9600.000000
447,-400.000000,6400.000000
448,-200.000000,1200.000000
449,0.000000,-4800.000000
450,0.000000,-8800.000000
451,0.000000,-10000.000000
452,-200.000000,-8400.000000
453,-200.000000,-4000.000000
454,-400.000000,1600.000000
455,-600.000000,6400.000000
456,-600.000000,9600.000000
457,-600.000000,10000.000000
458,-400.000000,6800.000000
459,-200.000000,2800.000000
460,-200.000000,-2400.000000
461,0.000000,-7200.000000
462,0.000000,-10000.000000
463,0.000000,-10000.000000
464,0.000000,-7600.000000
465,-200.000000,-4000.000000
466,-400.000000,1200.000000
467,-600.000000,5600.000000
468,-600.000000,9200.000000
469,-600.000000,10000.000000
470,-600.000000,9200.000000
471,-400.000000,6000.000000
472,-200.000000,2000.000000
473,-200.000000,-2400.000000
474,0.000000,-6800.000000
475,0.000000,-9200.000000
476,0.000000,-10400.000000
477,0.000000,-9200.000000
478,-200.000000,-6800.000000
479,-200.000000,-3200.000000
480,-400.000000,800.000000
481,-400.000000,4800.000000
482,-600.000000,7600.000000
483,-600.000000,9600.000000
484,-600.000000,10000.000000
485,-600.000000,8800.000000
486,-400.000000,6400.000000
487,-200.000000,3200.000000
488,-200.000000,-400.000000
489,-200.000000,-4000.000000
490,0.000000,-6800.000000
491,0.000000,-9200.000000
492,0.000000,-10000.000000
493,0.000000,-10000.000000
494,0.000000,-8800.000000
495,-200.000000,-6800.000000
496,-200.000000,-4400.000000
497,-400.000000,-800.000000
498,-400.000000,2000.000000
499,-600.000000,4800.000000
500,-600.000000,7200.000000
501,-600.000000,9200.000000
502,-600.000000,10000.000000
503,-600.000000,10000.000000
504,-600.000000,9600.000000
505,-400.000000,8400.000000
506,-400.000000,6000.000000
507,-200.000000,3600.000000
508,-200.000000,1600.000000
509,-200.000000,-800.000000
510,-200.000000,-3200.000000
511,0.000000,-5600.000000
512,0.000000,-7600.000000
513,0.000000,-8800.000000
514,0.000000,-9600.000000
515,0.000000,-10000.000000
516,0.000000,-10000.000000
517,0.000000,-10000.000000
518,0.000000,-9200.000000
519,-200.000000,-8000.000000
520,-200.000000,-6800.000000
521,-200.000000,-5600.000000
522,-200.000000,-4000.000000
523,-400.000000,-2000.000000
524,-400.000000,-400.000000
525,-400.000000,1200.000000
526,-400.000000,2400.000000
527,-600.000000,4000.000000
528,-600.000000,5200.000000
529,-600.000000,6000.000000
530,-600.000000,7200.000000
531,-600.000000,8400.000000
532,-600.000000,8800.000000
533,-600.000000,9200.000000
534,-600.000000,9600.000000
535,-600.000000,10000.000000
536,-600.000000,10000.000000
537,-600.000000,10000.000000
538,-600.000000,10000.000000
539,-600.000000,10000.000000
540,-600.000000,10000.000000
541,-600.000000,9600.000000
542,-600.000000,9600.000000
543,-600.000000,9600.000000
544,-600.000000,9200.000000
545,-600.000000,9200.000000
546,-400.000000,8800.000000
547,-400.000000,8800.000000
548,-400.000000,8800.000000
549,-400.000000,8400.000000
550,-400.000000,8400.000000
551,-400.000000,8400.000000
552,-400.000000,8400.000000
553,-600.000000,8400.000000
554,-600.000000,8400.000000
555,-400.000000,8400.000000
556,-400.000000,8800.000000
557,-400.000000,8800.000000
558,-600.000000,8800.000000
559,-600.000000,9200.000000
560,-400.000000,9200.000000
561,-600.000000,9600.000000
562,-600.000000,9600.000000
563,-600.000000,9600.000000
564,-600.000000,10000.000000
565,-600.000000,10000.000000
566,-600.000000,10000.000000
567,-600.000000,10400.000000
568,-600.000000,10000.000000
569,-600.000000,10000.000000
570,-600.000000,9600.000000
571,-600.000000,9600.000000
572,-600.000000,8800.000000
573,-600.000000,8400.000000
574,-600.000000,7200.000000
575,-600.000000,6400.000000
576,-600.000000,5200.000000
577,-600.000000,4000.000000
578,-400.000000,2800.000000
579,-400.000000,1200.000000
580,-400.000000,0.000000
581,-400.000000,-1600.000000
582,-200.000000,-3200.000000
583,-200.000000,-5200.000000
584,-200.000000,-6800.000000
585,0.000000,-8000.000000
586,0.000000,-9200.000000
587,0.000000,-9600.000000
588,0.000000,-10000.000000
589,0.000000,-10000.000000
590,0.000000,-9600.000000
591,0.000000,-8800.000000
592,0.000000,-7600.000000
593,0.000000,-6000.000000
594,0.000000,-4000.000000
595,-200.000000,-1200.000000
596,-200.000000,1200.000000
597,-400.000000,3600.000000
598,-400.000000,5600.000000
599,-400.000000,7600.000000
600,-600.000000,9200.000000
601,-600.000000,10000.000000
602,-600.000000,10000.000000
603,-600.000000,9200.000000
604,-600.000000,7200.000000
605,-600.000000,5200.000000
606,-600.000000,2400.000000
607,-400.000000,-400.000000
608,-200.000000,-4000.000000
609,-200.000000,-6400.000000
610,0.000000,-8800.000000
611,0.000000,-10000.000000
612,0.000000,-10000.000000
613,0.000000,-9200.000000
614,0.000000,-7600.000000
615,0.000000,-4400.000000
616,-200.000000,-800.000000
617,-200.000000,2800.000000
618,-400.000000,6000.000000
619,-600.000000,8800.000000
620,-600.000000,10000.000000
621,-600.000000,10000.000000
622,-600.000000,8400.000000
623,-600.000000,5200.000000
624,-400.000000,1600.000000
625,-400.000000,-2400.000000
626,-200.000000,-6400.000000
627,0.000000,-9200.000000
628,0.000000,-10000.000000
629,0.000000,-9600.000000
630,0.000000,-7200.000000
631,0.000000,-3200.000000
632,-200.000000,1200.000000
633,-400.000000,5200.000000
634,-600.000000,8800.000000
635,-600.000000,10000.000000
636,-600.000000,9200.000000
637,-600.000000,6000.000000
638,-400.000000,2000.000000
639,-200.000000,-2800.000000
640,-200.000000,-7600.000000
641,0.000000,-9600.000000
642,200.000000,-10000.000000
643,0.000000,-7600.000000
644,0.000000,-3200.000000
645,-200.000000,2000.000000
646,-400.000000,6400.000000
647,-600.000000,9600.000000
648,-600.000000,10000.000000
649,-600.000000,7200.000000
650,-400.000000,2400.000000
651,-200.000000,-2800.000000
652,0.000000,-8000.000000
653,0.000000,-10000.000000
654,0.000000,-9200.000000
655,0.000000,-5600.000000
656,-200.000000,0.000000
657,-400.000000,5600.000000
658,-600.000000,9600.000000
659,-600.000000,10000.000000
660,-600.000000,6400.000000
661,-400.000000,1200.000000
662,-200.000000,-5200.000000
663,0.000000,-9200.000000
664,200.000000,-10000.000000
665,0.000000,-7200.000000
666,-200.000000,-1200.000000
667,-400.000000,4800.000000
668,-600.000000,9200.000000
669,-600.000000,10000.000000
670,-600.000000,6000.000000
671,-400.000000,0.000000
672,-200.000000,-6800.000000
673,0.000000,-10000.000000
674,0.000000,-9200.000000
675,0.000000,-4000.000000
676,-200.000000,3200.000000
677,-600.000000,8800.000000
678,-600.000000,10000.000000
679,-600.000000,6400.000000
680,-400.000000,0.000000
681,-200.000000,-6800.000000
682,0.000000,-10000.000000
683,0.000000,-8400.000000
684,-200.000000,-2000.000000
685,-400.000000,5200.000000
686,-600.000000,9600.000000
687,-600.000000,9200.000000
688,-400.000000,3200.000000
689,-200.000000,-4800.000000
690,0.000000,-9600.000000
691,0.000000,-9200.000000
692,0.000000,-4000.000000
693,-400.000000,4000.000000
694,-600.000000,9600.000000
695,-600.000000,9200.000000
696,-400.000000,2800.000000
697,-200.000000,-5200.000000
698,0.000000,-10000.000000
699,0.000000,-8400.000000
700,-200.000000,-1600.000000
701,-400.000000,6400.000000
702,-600.000000,10000.000000
703,-600.000000,6800.000000
704,-400.000000,-800.000000
705,0.000000,-8400.000000
706,0.000000,-10000.000000
707,0.000000,-4400.000000
708,-400.000000,4000.000000
