lab_3.2.4+5/data/r1.csv

Channel              :,CH1
Frequency            :,	?
Period               :,  ?
PK-PK                :,16.60V
Average              :,-170.0mV
Vertical pos         :,5300.000000mV
Probe attenuation    :,1X
Voltage per ADC value:,3.125000mV
Time interval        :,1000.00000uS

index,CH1_Voltage(mV)
1,-500.000000
2,-500.000000
3,-300.000000
4,-700.000000
5,-1100.000000
6,-1100.000000
7,-900.000000
8,-500.000000
9,-300.000000
10,-500.000000
11,-900.000000
12,-1100.000000
13,-900.000000
14,-500.000000
15,-300.000000
16,-500.000000
17,-900.000000
18,-1100.000000
19,-900.000000
20,-500.000000
21,-300.000000
22,-500.000000
23,-900.000000
24,-1100.000000
25,-900.000000
26,-500.000000
27,-300.000000
28,-700.000000
29,-1100.000000
30,-1100.000000
31,-700.000000
32,-500.000000
33,-500.000000
34,-900.000000
35,-1100.000000
36,-900.000000
37,-500.000000
38,-300.000000
39,-700.000000
40,-1100.000000
41,-1100.000000
42,-700.000000
43,-300.000000
44,-500.000000
45,-900.000000
46,-1100.000000
47,-900.000000
48,-500.000000
49,-500.000000
50,-900.000000
51,-1100.000000
52,-900.000000
53,-500.000000
54,-500.000000
55,-900.000000
56,-1100.000000
57,-900.000000
58,-500.000000
59,-500.000000
60,-900.000000
61,-1100.000000
62,-900.000000
63,-500.000000
64,-500.000000
65,-900.000000
66,-1100.000000
67,-900.000000
68,-500.000000
69,-500.000000
70,-900.000000
71,-1100.000000
72,-700.000000
73,-300.000000
74,-700.000000
75,-1100.000000
76,-1100.000000
77,-500.000000
78,-300.000000
79,-900.000000
80,-1100.000000
81,-900.000000
82,-300.000000
83,-500.000000
84,-1100.000000
85,-1100.000000
86,-700.000000
87,-300.000000
88,-700.000000
89,-1100.000000
90,-900.000000
91,-300.000000
92,-500.000000
93,-1100.000000
94,-1100.000000
95,-500.000000
96,-300.000000
97,-900.000000
98,-1100.000000
99,-700.000000
100,-300.000000
101,-700.000000
102,-1100.000000
103,-900.000000
104,-300.000000
105,-500.000000
106,-1100.000000
107,-900.000000
108,-500.000000
109,-500.000000
110,-1100.000000
111,-1100.000000
112,-500.000000
113,-500.000000
114,-1100.000000
115,-1100.000000
116,-500.000000
117,-500.000000
118,-900.000000
119,-1100.000000
120,-500.000000
121,-500.000000
122,-1100.000000
123,-1100.000000
124,-500.000000
125,-500.000000
126,-900.000000
127,-1100.000000
128,-500.000000
129,-500.000000
130,-1100.000000
131,-1100.000000
132,-300.000000
133,-500.000000
134,-1100.000000
135,-900.000000
136,-300.000000
137,-700.000000
138,-1100.000000
139,-700.000000
140,-300.000000
141,-900.000000
142,-1100.000000
143,-500.000000
144,-300.000000
145,-1100.000000
146,-1100.000000
147,-500.000000
148,-500.000000
149,-1100.000000
150,-900.000000
151,-300.000000
152,-700.000000
153,-1100.000000
154,-500.000000
155,-300.000000
156,-1100.000000
157,-900.000000
158,-300.000000
159,-700.000000
160,-1100.000000
161,-700.000000
162,-300.000000
163,-1100.000000
164,-1100.000000
165,-300.000000
166,-700.000000
167,-1100.000000
168,-700.000000
169,-300.000000
170,-1100.000000
171,-1100.000000
172,-300.000000
173,-700.000000
174,-1100.000000
175,-500.000000
176,-500.000000
177,-1100.000000
178,-900.000000
179,-300.000000
180,-900.000000
181,-1100.000000
182,-500.000000
183,-700.000000
184,-1100.000000
185,-700.000000
186,-300.000000
187,-1100.000000
188,-900.000000
189,-300.000000
190,-900.000000
191,-1100.000000
192,-300.000000
193,-700.000000
194,-1100.000000
195,-500.000000
196,-500.000000
197,-1300.000000
198,-700.000000
199,-300.000000
200,-1100.000000
201,-700.000000
202,-300.000000
203,-1100.000000
204,-900.000000
205,-300.000000
206,-900.000000
207,-1100.000000
208,-300.000000
209,-900.000000
210,-1100.000000
211,-300.000000
212,-700.000000
213,-1100.000000
214,-300.000000
215,-700.000000
216,-1300.000000
217,-500.000000
218,-700.000000
219,-1100.000000
220,-500.000000
221,-700.000000
222,-1100.000000
223,-500.000000
224,-500.000000
225,-1100.000000
226,-500.000000
227,-500.000000
228,-1300.000000
229,-500.000000
230,-700.000000
231,-1100.000000
232,-500.000000
233,-700.000000
234,-1100.000000
235,-300.000000
236,-700.000000
237,-1100.000000
238,-300.000000
239,-900.000000
240,-1100.000000
241,-300.000000
242,-900.000000
243,-900.000000
244,-300.000000
245,-1100.000000
246,-900.000000
247,-300.000000
248,-1100.000000
249,-700.000000
250,-500.000000
251,-1300.000000
252,-500.000000
253,-500.000000
254,-1100.000000
255,-300.000000
256,-700.000000
257,-1100.000000
258,-300.000000
259,-1100.000000
260,-900.000000
261,-300.000000
262,-1300.000000
263,-500.000000
264,-500.000000
265,-1300.000000
266,-300.000000
267,-700.000000
268,-1100.000000
269,-300.000000
270,-1100.000000
271,-700.000000
272,-300.000000
273,-1300.000000
274,-500.000000
275,-700.000000
276,-1100.000000
277,-300.000000
278,-1100.000000
279,-700.000000
280,-300.000000
281,-1300.000000
282,-500.000000
283,-700.000000
284,-1100.000000
285,-300.000000
286,-1100.000000
287,-700.000000
288,-500.000000
289,-1300.000000
290,-300.000000
291,-900.000000
292,-900.000000
293,-300.000000
294,-1300.000000
295,-500.000000
296,-700.000000
297,-1100.000000
298,-300.000000
299,-1100.000000
300,-500.000000
301,-700.000000
302,-1100.000000
303,-300.000000
304,-1100.000000
305,-500.000000
306,-700.000000
307,-1100.000000
308,-300.000000
309,-1100.000000
310,-500.000000
311,-700.000000
312,-1100.000000
313,-300.000000
314,-1300.000000
315,-500.000000
316,-700.000000
317,-1100.000000
318,-300.000000
319,-1100.000000
320,-500.000000
321,-900.000000
322,-900.000000
323,-500.000000
324,-1300.000000
325,-300.000000
326,-1100.000000
327,-700.000000
328,-500.000000
329,-1100.000000
330,-300.000000
331,-1300.000000
332,-500.000000
333,-900.000000
334,-900.000000
335,-500.000000
336,-1300.000000
337,-300.000000
338,-1100.000000
339,-500.000000
340,-700.000000
341,-900.000000
342,-300.000000
343,-1300.000000
344,-300.000000
345,-1100.000000
346,-500.000000
347,-700.000000
348,-900.000000
349,-300.000000
350,-1300.000000
351,-300.000000
352,-1100.000000
353,-500.000000
354,-900.000000
355,-900.000000
356,-500.000000
357,-1100.000000
358,-300.000000
359,-1300.000000
360,-300.000000
361,-1100.000000
362,-500.000000
363,-700.000000
364,-900.000000
365,-500.000000
366,-1100.000000
367,-300.000000
368,-1300.000000
369,-300.000000
370,-1100.000000
371,-500.000000
372,-900.000000
373,-700.000000
374,-500.000000
375,-1100.000000
376,-300.000000
377,-1300.000000
378,-300.000000
379,-1300.000000
380,-300.000000
381,-1100.000000
382,-500.000000
383,-900.000000
384,-700.000000
385,-700.000000
386,-900.000000
387,-500.000000
388,-1100.000000
389,-300.000000
390,-1300.000000
391,-300.000000
392,-1300.000000
393,-300.000000
394,-1100.000000
395,-300.000000
396,-1100.000000
397,-500.000000
398,-900.000000
399,-700.000000
400,-700.000000
401,-900.000000
402,-700.000000
403,-900.000000
404,-500.000000
405,-1100.000000
406,-300.000000
407,-1300.000000
408,-300.000000
409,-1300.000000
410,-300.000000
411,-1300.000000
412,-300.000000
413,-1300.000000
414,-300.000000
415,-1300.000000
416,-300.000000
417,-1300.000000
418,-300.000000
419,-1100.000000
420,-300.000000
421,-1100.000000
422,-300.000000
423,-1100.000000
424,-300.000000
425,-1100.000000
426,-500.000000
427,-1100.000000
428,-500.000000
429,-1100.000000
430,-500.000000
431,-1100.000000
432,-500.000000
433,-1100.000000
434,-500.000000
435,-1100.000000
436,-500.000000
437,-1100.000000
438,-500.000000
439,-1100.000000
440,-500.000000
441,-1100.000000
442,-300.000000
443,-1100.000000
444,-300.000000
445,-1100.000000
446,-300.000000
447,-1300.000000
448,-300.000000
449,-1300.000000
450,-300.000000
451,-1300.000000
452,-300.000000
453,-1300.000000
454,-300.000000
455,-1300.000000
456,-300.000000
457,-1100.000000
458,-300.000000
459,-1100.000000
460,-500.000000
461,-900.000000
462,-500.000000
463,-900.000000
464,-700.000000
465,-700.000000
466,-900.000000
467,-500.000000
468,-1100.000000
469,-300.000000
470,-1300.000000
471,-300.000000
472,-1300.000000
473,-300.000000
474,-1300.000000
475,-300.000000
476,-1100.000000
477,-500.000000
478,-900.000000
479,-700.000000
480,-700.000000
481,-900.000000
482,-500.000000
483,-1100.000000
484,-300.000000
485,-1300.000000
486,-300.000000
487,-1300.000000
488,-300.000000
489,-1100.000000
490,-500.000000
491,-900.000000
492,-700.000000
493,-500.000000
494,-1100.000000
495,-300.000000
496,-1300.000000
497,-300.000000
498,-1300.000000
499,-300.000000
500,-900.000000
501,-700.000000
502,-700.000000
503,-1100.000000
504,-300.000000
505,-1300.000000
506,-100.000000
507,-1300.000000
508,-500.000000
509,-900.000000
510,-700.000000
511,-500.000000
512,-1100.000000
513,-300.000000
514,-1300.000000
515,-300.000000
516,-1100.000000
517,-700.000000
518,-700.000000
519,-1100.000000
520,-300.000000
521,-1300.000000
522,-300.000000
523,-1100.000000
524,-500.000000
525,-700.000000
526,-1100.000000
527,-300.000000
528,-1300.000000
529,-300.000000
530,-1100.000000
531,-700.000000
532,-500.000000
533,-1100.000000
534,-300.000000
535,-1300.000000
536,-500.000000
537,-900.000000
538,-900.000000
539,-300.000000
540,-1300.000000
541,-300.000000
542,-1100.000000
543,-700.000000
544,-500.000000
545,-1300.000000
546,-100.000000
547,-1100.000000
548,-500.000000
549,-700.000000
550,-1100.000000
551,-300.000000
552,-1300.000000
553,-500.000000
554,-700.000000
555,-1100.000000
556,-300.000000
557,-1300.000000
558,-500.000000
559,-700.000000
560,-1100.000000
561,-300.000000
562,-1300.000000
563,-500.000000
564,-700.000000
565,-1100.000000
566,-100.000000
567,-1100.000000
568,-700.000000
569,-500.000000
570,-1300.000000
571,-100.000000
572,-1100.000000
573,-700.000000
574,-300.000000
575,-1300.000000
576,-300.000000
577,-900.000000
578,-1100.000000
579,-300.000000
580,-1300.000000
581,-500.000000
582,-500.000000
583,-1300.000000
584,-300.000000
585,-1100.000000
586,-900.000000
587,-300.000000
588,-1300.000000
589,-500.000000
590,-700.000000
591,-1300.000000
592,-100.000000
593,-900.000000
594,-900.000000
595,-300.000000
596,-1300.000000
597,-500.000000
598,-500.000000
599,-1300.000000
600,-300.000000
601,-900.000000
602,-1100.000000
603,-100.000000
604,-1100.000000
605,-900.000000
606,-300.000000
607,-1300.000000
608,-500.000000
609,-500.000000
610,-1300.000000
611,-300.000000
612,-700.000000
613,-1300.000000
614,-100.000000
615,-900.000000
616,-1100.000000
617,-100.000000
618,-1100.000000
619,-900.000000
620,-300.000000
621,-1300.000000
622,-700.000000
623,-300.000000
624,-1300.000000
625,-500.000000
626,-300.000000
627,-1300.000000
628,-500.000000
629,-500.000000
630,-1300.000000
631,-300.000000
632,-500.000000
633,-1300.000000
634,-300.000000
635,-700.000000
636,-1300.000000
637,-300.000000
638,-700.000000
639,-1300.000000
640,-300.000000
641,-700.000000
642,-1300.000000
643,-300.000000
644,-700.000000
645,-1300.000000
646,-300.000000
647,-500.000000
648,-1300.000000
649,-300.000000
650,-500.000000
651,-1300.000000
652,-500.000000
653,-500.000000
654,-1300.000000
655,-500.000000
656,-300.000000
657,-1300.000000
658,-700.000000
659,-300.000000
660,-1300.000000
661,-900.000000
662,-300.000000
663,-1100.000000
664,-900.000000
665,-100.000000
666,-900.000000
667,-1100.000000
668,-100.000000
669,-700.000000
670,-1300.000000
671,-300.000000
672,-500.000000
673,-1300.000000
674,-700.000000
675,-300.000000
676,-1300.000000
677,-900.000000
678,-100.000000
679,-900.000000
680,-1300.000000
681,-300.000000
682,-500.000000
683,-1300.000000
684,-500.000000
685,-300.000000
686,-1300.000000
687,-900.000000
688,-100.000000
689,-900.000000
690,-1300.000000
691,-300.000000
692,-500.000000
693,-1300.000000
694,-700.000000
695,-100.000000
696,-1100.000000
697,-1100.000000
698,-100.000000
699,-500.000000
700,-1300.000000
701,-700.000000
702,-100.000000
703,-1100.000000
704,-1100.000000
705,-100.000000
706,-500.000000
707,-1300.000000
708,-700.000000
709,-100.000000
710,-900.000000
711,-1300.000000
712,-300.000000
713,-300.000000
714,-1300.000000
715,-1100.000000
716,-100.000000
717,-700.000000
718,-1300.000000
719,-700.000000
720,-100.000000
721,-900.000000
722,-1300.000000
723,-300.000000
724,-300.000000
725,-1300.000000
726,-1100.000000
727,-300.000000
728,-500.000000
729,-1300.000000
730,-900.000000
731,-100.000000
732,-700.000000
733,-1500.000000
734,-700.000000
735,-100.000000
736,-700.000000
737,-1300.000000
738,-700.000000
739,-100.000000
740,-900.000000
741,-1300.000000
742,-700.000000
743,-100.000000
744,-900.000000
745,-1300.000000
746,-700.000000
747,-100.000000
748,-900.000000
749,-1300.000000
750,-700.000000
751,-100.000000
752,-700.000000
753,-1300.000000
754,-700.000000
755,-100.000000
756,-700.000000
757,-1300.000000
758,-900.000000
759,-100.000000
760,-500.000000
761,-1300.000000
762,-1100.000000
763,-300.000000
764,-300.000000
765,-1300.000000
766,-1300.000000
767,-500.000000
768,-100.000000
769,-900.000000
770,-1300.000000
771,-700.000000
772,-100.000000
773,-700.000000
774,-1300.000000
775,-1100.000000
776,-300.000000
777,-300.000000
778,-1100.000000
779,-1300.000000
780,-500.000000
781,-100.000000
782,-700.000000
783,-1300.000000
784,-1100.000000
785,-300.000000
786,-300.000000
787,-1100.000000
788,-1300.000000
789,-700.000000
790,-100.000000
791,-500.000000
792,-1300.000000
793,-1300.000000
794,-500.000000
795,-100.000000
796,-700.000000
797,-1300.000000
798,-1100.000000
799,-300.000000
800,-100.000000
801,-900.000000
802,-1500.000000
803,-1100.000000
804,-300.000000
805,-100.000000
806,-900.000000
807,-1300.000000
808,-1100.000000
809,-300.000000
810,-100.000000
811,-900.000000
812,-1500.000000
813,-1100.000000
814,-300.000000
815,-100.000000
816,-700.000000
817,-1300.000000
818,-1100.000000
819,-300.000000
820,-100.000000
821,-700.000000
822,-1300.000000
823,-1300.000000
824,-700.000000
825,-100.000000
826,-300.000000
827,-1100.000000
828,-1500.000000
829,-900.000000
830,-300.000000
831,-100.000000
832,-700.000000
833,-1300.000000
834,-1300.000000
835,-700.000000
836,-100.000000
837,-300.000000
838,-1100.000000
839,-1500.000000
840,-1100.000000
841,-300.000000
842,-100.000000
843,-500.000000
844,-1100.000000
845,-1500.000000
846,-1100.000000
847,-300.000000
848,-100.000000
849,-500.000000
850,-1100.000000
851,-1500.000000
852,-900.000000
853,-300.000000
854,-100.000000
855,-500.000000
856,-1100.000000
857,-1500.000000
858,-1100.000000
859,-500.000000
860,-100.000000
861,-300.000000
862,-900.000000
863,-1500.000000
864,-1300.000000
865,-700.000000
866,-100.000000
867,-100.000000
868,-500.000000
869,-1100.000000
870,-1500.000000
871,-1100.000000
872,-500.000000
873,-100.000000
874,-300.000000
875,-700.000000
876,-1300.000000
877,-1500.000000
878,-900.000000
879,-300.000000
880,-100.000000
881,-300.000000
882,-700.000000
883,-1300.000000
884,-1500.000000
885,-1100.000000
886,-500.000000
887,-100.000000
888,-100.000000
889,-500.000000
890,-1100.000000
891,-1500.000000
892,-1300.000000
893,-700.000000
894,-300.000000
895,-100.000000
896,-300.000000
897,-900.000000
898,-1300.000000
899,-1500.000000
900,-1100.000000
901,-700.000000
902,-100.000000
903,-100.000000
904,-300.000000
905,-900.000000
906,-1300.000000
907,-1500.000000
908,-1300.000000
909,-700.000000
910,-300.000000
911,-100.000000
912,-100.000000
913,-700.000000
914,-1100.000000
915,-1300.000000
916,-1500.000000
917,-1100.000000
918,-500.000000
919,-100.000000
920,-100.000000
921,-300.000000
922,-700.000000
923,-1100.000000
924,-1500.000000
925,-1500.000000
926,-1100.000000
927,-700.000000
928,-300.000000
929,-100.000000
930,-100.000000
931,-300.000000
932,-900.000000
933,-1300.000000
934,-1500.000000
935,-1300.000000
936,-1100.000000
937,-700.000000
938,-300.000000
939,-100.000000
940,-100.000000
941,-300.000000
942,-700.000000
943,-1100.000000
944,-1300.000000
945,-1500.000000
946,-1300.000000
947,-1100.000000
948,-700.000000
949,-300.000000
950,-100.000000
951,-100.000000
952,-100.000000
953,-500.000000
954,-900.000000
955,-1300.000000
956,-1500.000000
957,-1500.000000
958,-1300.000000
959,-1100.000000
960,-700.000000
961,-300.000000
962,-100.000000
963,100.000000
964,-100.000000
965,-300.000000
966,-500.000000
967,-900.000000
968,-1300.000000
969,-1500.000000
970,-1500.000000
971,-1500.000000
972,-1300.000000
973,-900.000000
974,-700.000000
975,-300.000000
976,-100.000000
977,100.000000
978,-100.000000
979,-100.000000
980,-300.000000
981,-700.000000
982,-900.000000
983,-1100.000000
984,-1300.000000
985,-1500.000000
986,-1500.000000
987,-1500.000000
988,-1300.000000
989,-1100.000000
990,-900.000000
991,-500.000000
992,-300.000000
993,-100.000000
994,-100.000000
995,100.000000
996,100.000000
997,-100.000000
998,-300.000000
999,-500.000000
1000,-700.000000
1001,-900.000000
1002,-1100.000000
1003,-1300.000000
1004,-1300.000000
1005,-1500.000000
1006,-1500.000000
1007,-1500.000000
1008,-1500.000000
1009,-1300.000000
1010,-1100.000000
1011,-900.000000
1012,-900.000000
1013,-700.000000
1014,-500.000000
1015,-300.000000
1016,-300.000000
1017,-100.000000
1018,-100.000000
1019,100.000000
1020,100.000000
1021,100.000000
1022,100.000000
1023,-100.000000
1024,-100.000000
1025,-300.000000
1026,-300.000000
1027,-500.000000
1028,-500.000000
1029,-700.000000
1030,-700.000000
1031,-900.000000
1032,-900.000000
1033,-1100.000000
1034,-1100.000000
1035,-1100.000000
1036,-1300.000000
1037,-1300.000000
1038,-1300.000000
1039,-1500.000000
1040,-1500.000000
1041,-1500.000000
1042,-1500.000000
1043,-1500.000000
1044,-1500.000000
1045,-1500.000000
1046,-1500.000000
1047,-1500.000000
1048,-1500.000000
1049,-1500.000000
1050,-1500.000000
1051,-1500.000000
1052,-1500.000000
1053,-1500.000000
1054,-1500.000000
1055,-1500.000000
1056,-1500.000000
1057,-1500.000000
1058,-1500.000000
1059,-1500.000000
1060,-1500.000000
1061,-1500.000000
1062,-1500.000000
1063,-1500.000000
1064,-1500.000000
1065,-1500.000000
1066,-1500.000000
1067,-1500.000000
1068,-1500.000000
1069,-1500.000000
1070,-1500.000000
1071,-1500.000000
1072,-1500.000000
1073,-1500.000000
1074,-1500.000000
1075,-1500.000000
1076,-1500.000000
1077,-1300.000000
1078,-1300.000000
1079,-1300.000000
1080,-1100.000000
1081,-1100.000000
1082,-900.000000
1083,-900.000000
1084,-900.000000
1085,-700.000000
1086,-500.000000
1087,-500.000000
1088,-300.000000
1089,-100.000000
1090,-100.000000
1091,-100.000000
1092,100.000000
1093,100.000000
1094,100.000000
1095,100.000000
1096,100.000000
1097,-100.000000
1098,-100.000000
1099,-300.000000
1100,-500.000000
1101,-700.000000
1102,-700.000000
1103,-900.000000
1104,-1100.000000
1105,-1300.000000
1106,-1500.000000
1107,-1500.000000
1108,-1500.000000
1109,-1500.000000
1110,-1500.000000
1111,-1300.000000
1112,-1300.000000
1113,-1100.000000
1114,-900.000000
1115,-500.000000
1116,-300.000000
1117,-100.000000
1118,100.000000
1119,100.000000
1120,100.000000
1121,-100.000000
1122,-100.000000
1123,-500.000000
1124,-700.000000
1125,-900.000000
1126,-1100.000000
1127,-1500.000000
1128,-1500.000000
1129,-1700.000000
1130,-1500.000000
1131,-1300.000000
1132,-1100.000000
1133,-700.000000
1134,-500.000000
1135,-100.000000
1136,-100.000000
1137,100.000000
1138,100.000000
1139,-100.000000
1140,-500.000000
1141,-900.000000
1142,-1100.000000
1143,-1300.000000
1144,-1500.000000
1145,-1500.000000
1146,-1300.000000
1147,-1100.000000
1148,-700.000000
1149,-300.000000
1150,-100.000000
1151,100.000000
1152,100.000000
1153,-100.000000
1154,-500.000000
1155,-900.000000
1156,-1300.000000
1157,-1500.000000
1158,-1500.000000
1159,-1500.000000
1160,-1100.000000
1161,-700.000000
1162,-300.000000
1163,100.000000
1164,100.000000
1165,-100.000000
1166,-300.000000
1167,-900.000000
1168,-1300.000000
1169,-1500.000000
1170,-1700.000000
1171,-1300.000000
1172,-900.000000
1173,-300.000000
1174,-100.000000
1175,100.000000
1176,-100.000000
1177,-500.000000
1178,-900.000000
1179,-1300.000000
1180,-1700.000000
1181,-1500.000000
1182,-1100.000000
1183,-500.000000
1184,-100.000000
1185,100.000000
1186,-100.000000
1187,-500.000000
1188,-900.000000
1189,-1500.000000
1190,-1700.000000
1191,-1500.000000
1192,-900.000000
1193,-300.000000
1194,100.000000
1195,100.000000
1196,-300.000000
1197,-900.000000
1198,-1300.000000
1199,-1700.000000
