lab_3.2.4+5/data/r2.csv

Channel              :,CH1
Frequency            :,	?
Period               :,  ?
PK-PK                :,4.400V
Average              :,-120.4mV
Vertical pos         :,2120.000000mV
Probe attenuation    :,1X
Voltage per ADC value:,1.250000mV
Time interval        :,1000.00000uS

index,CH1_Voltage(mV)
1,-200.000000
2,-200.000000
3,360.000000
4,-840.000000
5,520.000000
6,-440.000000
7,-360.000000
8,440.000000
9,-840.000000
10,440.000000
11,-280.000000
12,-520.000000
13,600.000000
14,-840.000000
15,280.000000
16,-40.000000
17,-680.000000
18,600.000000
19,-600.000000
20,-120.000000
21,360.000000
22,-840.000000
23,440.000000
24,-280.000000
25,-520.000000
26,600.000000
27,-760.000000
28,-40.000000
29,280.000000
30,-840.000000
31,520.000000
32,-360.000000
33,-520.000000
34,600.000000
35,-760.000000
36,-40.000000
37,360.000000
38,-840.000000
39,440.000000
40,-120.000000
41,-680.000000
42,600.000000
43,-520.000000
44,-360.000000
45,520.000000
46,-760.000000
47,40.000000
48,360.000000
49,-840.000000
50,440.000000
51,-40.000000
52,-680.000000
53,600.000000
54,-360.000000
55,-520.000000
56,600.000000
57,-600.000000
58,-280.000000
59,520.000000
60,-760.000000
61,-40.000000
62,440.000000
63,-840.000000
64,120.000000
65,280.000000
66,-840.000000
67,360.000000
68,40.000000
69,-840.000000
70,440.000000
71,-40.000000
72,-760.000000
73,520.000000
74,-200.000000
75,-760.000000
76,520.000000
77,-200.000000
78,-680.000000
79,520.000000
80,-280.000000
81,-680.000000
82,600.000000
83,-280.000000
84,-680.000000
85,600.000000
86,-200.000000
87,-760.000000
88,520.000000
89,-200.000000
90,-760.000000
91,520.000000
92,-40.000000
93,-840.000000
94,440.000000
95,40.000000
96,-840.000000
97,360.000000
98,280.000000
99,-840.000000
100,40.000000
101,440.000000
102,-840.000000
103,-120.000000
104,520.000000
105,-680.000000
106,-360.000000
107,600.000000
108,-520.000000
109,-600.000000
110,600.000000
111,-200.000000
112,-760.000000
113,440.000000
114,120.000000
115,-840.000000
116,120.000000
117,440.000000
118,-760.000000
119,-280.000000
120,600.000000
121,-520.000000
122,-680.000000
123,520.000000
124,-40.000000
125,-840.000000
126,280.000000
127,440.000000
128,-760.000000
129,-280.000000
130,600.000000
131,-440.000000
132,-760.000000
133,440.000000
134,120.000000
135,-920.000000
136,-120.000000
137,600.000000
138,-520.000000
139,-680.000000
140,520.000000
141,40.000000
142,-840.000000
143,-40.000000
144,600.000000
145,-520.000000
146,-680.000000
147,520.000000
148,120.000000
149,-840.000000
150,-200.000000
151,680.000000
152,-360.000000
153,-840.000000
154,360.000000
155,440.000000
156,-760.000000
157,-520.000000
158,600.000000
159,-40.000000
160,-840.000000
161,-120.000000
162,600.000000
163,-360.000000
164,-840.000000
165,280.000000
166,520.000000
167,-680.000000
168,-680.000000
169,520.000000
170,280.000000
171,-840.000000
172,-520.000000
173,600.000000
174,40.000000
175,-840.000000
176,-280.000000
177,680.000000
178,-40.000000
179,-840.000000
180,-200.000000
181,680.000000
182,-200.000000
183,-920.000000
184,-120.000000
185,680.000000
186,-200.000000
187,-920.000000
188,-120.000000
189,680.000000
190,-120.000000
191,-920.000000
192,-200.000000
193,680.000000
194,-120.000000
195,-920.000000
196,-280.000000
197,600.000000
198,120.000000
199,-840.000000
200,-440.000000
201,600.000000
202,360.000000
203,-680.000000
204,-680.000000
205,440.000000
206,520.000000
207,-520.000000
208,-840.000000
209,40.000000
210,680.000000
211,-200.000000
212,-920.000000
213,-280.000000
214,600.000000
215,280.000000
216,-760.000000
217,-680.000000
218,360.000000
219,600.000000
220,-360.000000
221,-840.000000
222,-200.000000
223,600.000000
224,280.000000
225,-760.000000
226,-680.000000
227,280.000000
228,680.000000
229,-200.000000
230,-920.000000
231,-440.000000
232,520.000000
233,440.000000
234,-520.000000
235,-920.000000
236,-120.000000
237,680.000000
238,280.000000
239,-680.000000
240,-840.000000
241,40.000000
242,680.000000
243,40.000000
244,-760.000000
245,-760.000000
246,120.000000
247,680.000000
248,40.000000
249,-840.000000
250,-760.000000
251,120.000000
252,680.000000
253,40.000000
254,-760.000000
255,-760.000000
256,40.000000
257,680.000000
258,280.000000
259,-680.000000
260,-840.000000
261,-120.000000
262,600.000000
263,440.000000
264,-440.000000
265,-920.000000
266,-440.000000
267,440.000000
268,600.000000
269,-120.000000
270,-840.000000
271,-760.000000
272,40.000000
273,680.000000
274,360.000000
275,-520.000000
276,-920.000000
277,-440.000000
278,440.000000
279,680.000000
280,40.000000
281,-760.000000
282,-840.000000
283,-200.000000
284,600.000000
285,600.000000
286,-120.000000
287,-840.000000
288,-840.000000
289,-120.000000
290,600.000000
291,600.000000
292,-120.000000
293,-840.000000
294,-840.000000
295,-200.000000
296,600.000000
297,600.000000
298,-40.000000
299,-760.000000
300,-920.000000
301,-360.000000
302,440.000000
303,680.000000
304,280.000000
305,-520.000000
306,-920.000000
307,-680.000000
308,40.000000
309,600.000000
310,600.000000
311,-120.000000
312,-760.000000
313,-920.000000
314,-440.000000
315,360.000000
316,680.000000
317,440.000000
318,-280.000000
319,-840.000000
320,-920.000000
321,-360.000000
322,360.000000
323,680.000000
324,440.000000
325,-280.000000
326,-840.000000
327,-920.000000
328,-520.000000
329,120.000000
330,680.000000
331,600.000000
332,-40.000000
333,-600.000000
334,-920.000000
335,-760.000000
336,-200.000000
337,440.000000
338,760.000000
339,440.000000
340,-200.000000
341,-760.000000
342,-920.000000
343,-680.000000
344,-120.000000
345,520.000000
346,680.000000
347,520.000000
348,-120.000000
349,-680.000000
350,-920.000000
351,-840.000000
352,-280.000000
353,360.000000
354,680.000000
355,680.000000
356,280.000000
357,-360.000000
358,-840.000000
359,-920.000000
360,-680.000000
361,-200.000000
362,360.000000
363,680.000000
364,680.000000
365,280.000000
366,-280.000000
367,-760.000000
368,-920.000000
369,-840.000000
370,-440.000000
371,40.000000
372,600.000000
373,680.000000
374,600.000000
375,120.000000
376,-360.000000
377,-760.000000
378,-920.000000
379,-840.000000
380,-440.000000
381,40.000000
382,440.000000
383,680.000000
384,680.000000
385,440.000000
386,-120.000000
387,-520.000000
388,-840.000000
389,-1000.000000
390,-840.000000
391,-520.000000
392,-40.000000
393,360.000000
394,680.000000
395,760.000000
396,600.000000
397,280.000000
398,-200.000000
399,-600.000000
400,-840.000000
401,-920.000000
402,-840.000000
403,-600.000000
404,-280.000000
405,120.000000
406,520.000000
407,680.000000
408,760.000000
409,600.000000
410,360.000000
411,-40.000000
412,-440.000000
413,-760.000000
414,-920.000000
415,-1000.000000
416,-920.000000
417,-680.000000
418,-360.000000
419,-40.000000
420,360.000000
421,520.000000
422,680.000000
423,760.000000
424,680.000000
425,440.000000
426,120.000000
427,-200.000000
428,-440.000000
429,-680.000000
430,-840.000000
431,-1000.000000
432,-1000.000000
433,-840.000000
434,-680.000000
435,-520.000000
436,-280.000000
437,40.000000
438,360.000000
439,520.000000
440,680.000000
441,760.000000
442,760.000000
443,680.000000
444,600.000000
445,440.000000
446,120.000000
447,-40.000000
448,-280.000000
449,-440.000000
450,-680.000000
451,-840.000000
452,-920.000000
453,-1000.000000
454,-1000.000000
455,-1000.000000
456,-920.000000
457,-840.000000
458,-680.000000
459,-520.000000
460,-440.000000
461,-280.000000
462,-120.000000
463,40.000000
464,280.000000
465,360.000000
466,520.000000
467,600.000000
468,680.000000
469,680.000000
470,760.000000
471,760.000000
472,760.000000
473,760.000000
474,760.000000
475,680.000000
476,680.000000
477,600.000000
478,520.000000
479,440.000000
480,360.000000
481,280.000000
482,280.000000
483,120.000000
484,120.000000
485,40.000000
486,-40.000000
487,-40.000000
488,-120.000000
489,-200.000000
490,-200.000000
491,-280.000000
492,-280.000000
493,-280.000000
494,-360.000000
495,-360.000000
496,-360.000000
497,-360.000000
498,-360.000000
499,-360.000000
500,-360.000000
501,-360.000000
502,-360.000000
503,-280.000000
504,-280.000000
505,-280.000000
506,-200.000000
507,-200.000000
508,-200.000000
509,-120.000000
510,-120.000000
511,-40.000000
512,40.000000
513,120.000000
514,280.000000
515,280.000000
516,360.000000
517,440.000000
518,520.000000
519,520.000000
520,600.000000
521,680.000000
522,680.000000
523,760.000000
524,760.000000
525,760.000000
526,760.000000
527,760.000000
528,680.000000
529,680.000000
530,600.000000
531,520.000000
532,360.000000
533,280.000000
534,40.000000
535,-120.000000
536,-280.000000
537,-440.000000
538,-600.000000
539,-760.000000
540,-840.000000
541,-1000.000000
542,-1000.000000
543,-1000.000000
544,-1000.000000
545,-920.000000
546,-840.000000
547,-600.000000
548,-440.000000
549,-200.000000
550,-40.000000
551,280.000000
552,440.000000
553,600.000000
554,760.000000
555,760.000000
556,760.000000
557,680.000000
558,520.000000
559,280.000000
560,-40.000000
561,-280.000000
562,-520.000000
563,-840.000000
564,-920.000000
565,-1000.000000
566,-1000.000000
567,-920.000000
568,-680.000000
569,-440.000000
570,-120.000000
571,280.000000
572,520.000000
573,760.000000
574,760.000000
575,760.000000
576,520.000000
577,280.000000
578,-120.000000
579,-520.000000
580,-760.000000
581,-1000.000000
582,-1080.000000
583,-1000.000000
584,-680.000000
585,-360.000000
586,40.000000
587,440.000000
588,760.000000
589,840.000000
590,760.000000
591,520.000000
592,40.000000
593,-360.000000
594,-760.000000
595,-1000.000000
596,-1000.000000
597,-840.000000
598,-520.000000
599,-120.000000
600,360.000000
601,680.000000
602,840.000000
603,680.000000
604,360.000000
605,-200.000000
606,-680.000000
607,-920.000000
608,-1000.000000
609,-840.000000
610,-440.000000
611,40.000000
612,600.000000
613,760.000000
614,760.000000
615,440.000000
616,-120.000000
617,-680.000000
618,-1000.000000
619,-1080.000000
620,-760.000000
621,-280.000000
622,360.000000
623,760.000000
624,840.000000
625,600.000000
626,-40.000000
627,-600.000000
628,-1000.000000
629,-1000.000000
630,-760.000000
631,-200.000000
632,440.000000
633,840.000000
634,760.000000
635,360.000000
636,-360.000000
637,-840.000000
638,-1080.000000
639,-840.000000
640,-280.000000
641,440.000000
642,760.000000
643,760.000000
644,280.000000
645,-520.000000
646,-1000.000000
647,-1000.000000
648,-600.000000
649,40.000000
650,680.000000
651,840.000000
652,440.000000
653,-280.000000
654,-920.000000
655,-1080.000000
656,-680.000000
657,-40.000000
658,680.000000
659,840.000000
660,440.000000
661,-360.000000
662,-920.000000
663,-1000.000000
664,-520.000000
665,280.000000
666,760.000000
667,680.000000
668,40.000000
669,-760.000000
670,-1080.000000
671,-840.000000
672,-40.000000
673,680.000000
674,840.000000
675,280.000000
676,-600.000000
677,-1080.000000
678,-840.000000
679,-120.000000
680,680.000000
681,760.000000
682,120.000000
683,-680.000000
684,-1080.000000
685,-760.000000
686,40.000000
687,760.000000
688,680.000000
689,-120.000000
690,-920.000000
691,-1080.000000
692,-440.000000
693,520.000000
694,840.000000
695,360.000000
696,-600.000000
697,-1080.000000
698,-760.000000
699,280.000000
700,840.000000
701,600.000000
702,-440.000000
703,-1080.000000
704,-840.000000
705,40.000000
706,840.000000
707,600.000000
708,-280.000000
709,-1080.000000
710,-840.000000
711,120.000000
712,840.000000
713,520.000000
714,-520.000000
715,-1080.000000
716,-680.000000
717,360.000000
718,840.000000
719,360.000000
720,-760.000000
721,-1080.000000
722,-360.000000
723,680.000000
724,760.000000
725,-120.000000
726,-1000.000000
727,-840.000000
728,120.000000
729,840.000000
730,360.000000
731,-680.000000
732,-1080.000000
733,-280.000000
734,760.000000
735,680.000000
736,-360.000000
737,-1080.000000
738,-600.000000
739,520.000000
740,840.000000
741,-200.000000
742,-1080.000000
743,-760.000000
744,440.000000
745,840.000000
746,-40.000000
747,-1000.000000
748,-760.000000
749,440.000000
750,840.000000
751,-40.000000
752,-1080.000000
753,-760.000000
754,520.000000
755,840.000000
756,-200.000000
757,-1080.000000
758,-600.000000
759,600.000000
760,760.000000
761,-440.000000
762,-1080.000000
763,-360.000000
764,840.000000
765,520.000000
766,-760.000000
767,-1080.000000
768,40.000000
769,840.000000
770,40.000000
771,-1080.000000
772,-680.000000
773,600.000000
774,760.000000
775,-520.000000
776,-1080.000000
777,-120.000000
778,920.000000
779,120.000000
780,-1080.000000
781,-680.000000
782,680.000000
783,680.000000
784,-680.000000
785,-1000.000000
786,120.000000
787,920.000000
788,-200.000000
789,-1160.000000
790,-280.000000
791,840.000000
792,280.000000
793,-1080.000000
794,-680.000000
795,760.000000
796,520.000000
797,-840.000000
798,-920.000000
799,520.000000
800,760.000000
801,-760.000000
802,-1000.000000
803,360.000000
804,840.000000
805,-520.000000
806,-1080.000000
807,280.000000
808,840.000000
809,-440.000000
810,-1080.000000
811,120.000000
812,840.000000
813,-440.000000
814,-1080.000000
815,280.000000
816,840.000000
817,-520.000000
818,-1080.000000
819,360.000000
820,760.000000
821,-680.000000
822,-1000.000000
823,600.000000
824,680.000000
825,-920.000000
826,-760.000000
827,760.000000
828,440.000000
829,-1080.000000
830,-440.000000
831,920.000000
832,-40.000000
833,-1160.000000
834,-40.000000
835,920.000000
836,-520.000000
837,-1080.000000
838,520.000000
839,680.000000
840,-920.000000
841,-680.000000
842,840.000000
843,120.000000
844,-1160.000000
845,-40.000000
846,920.000000
847,-600.000000
848,-1000.000000
849,680.000000
850,440.000000
851,-1080.000000
852,-280.000000
853,920.000000
854,-440.000000
855,-1000.000000
856,600.000000
857,520.000000
858,-1080.000000
859,-280.000000
860,920.000000
861,-520.000000
862,-1000.000000
863,680.000000
864,360.000000
865,-1160.000000
866,-40.000000
867,840.000000
868,-760.000000
869,-760.000000
870,840.000000
871,-120.000000
872,-1160.000000
873,520.000000
874,520.000000
875,-1160.000000
876,-200.000000
877,920.000000
878,-760.000000
879,-760.000000
880,920.000000
881,-280.000000
882,-1080.000000
883,680.000000
884,280.000000
885,-1160.000000
886,280.000000
887,680.000000
888,-1080.000000
889,-200.000000
890,840.000000
891,-840.000000
892,-600.000000
893,920.000000
894,-520.000000
895,-840.000000
896,920.000000
897,-280.000000
898,-1080.000000
899,760.000000
900,-40.000000
901,-1160.000000
902,680.000000
903,280.000000
904,-1160.000000
905,520.000000
906,440.000000
907,-1240.000000
908,360.000000
909,520.000000
910,-1240.000000
911,280.000000
912,600.000000
913,-1160.000000
914,280.000000
915,600.000000
916,-1160.000000
917,280.000000
918,600.000000
919,-1160.000000
920,360.000000
921,520.000000
922,-1160.000000
923,360.000000
924,440.000000
925,-1240.000000
926,520.000000
927,280.000000
928,-1160.000000
929,680.000000
930,40.000000
931,-1080.000000
932,840.000000
933,-280.000000
934,-920.000000
935,1000.000000
936,-520.000000
937,-680.000000
938,1000.000000
939,-840.000000
940,-360.000000
941,840.000000
942,-1080.000000
943,40.000000
944,600.000000
945,-1240.000000
946,600.000000
947,120.000000
948,-1080.000000
949,840.000000
950,-440.000000
951,-760.000000
952,1000.000000
953,-920.000000
954,-200.000000
955,760.000000
956,-1240.000000
957,520.000000
958,120.000000
959,-1080.000000
960,920.000000
961,-600.000000
962,-600.000000
963,920.000000
964,-1160.000000
965,280.000000
966,360.000000
967,-1160.000000
968,840.000000
969,-520.000000
970,-600.000000
971,920.000000
972,-1160.000000
973,360.000000
974,280.000000
975,-1160.000000
976,1000.000000
977,-760.000000
978,-360.000000
979,760.000000
980,-1240.000000
981,680.000000
982,-200.000000
983,-840.000000
984,920.000000
985,-1160.000000
986,360.000000
987,120.000000
988,-1080.000000
989,1000.000000
990,-1000.000000
991,-40.000000
992,440.000000
993,-1160.000000
994,920.000000
995,-840.000000
996,-120.000000
997,520.000000
998,-1160.000000
999,1000.000000
1000,-840.000000
1001,-120.000000
1002,520.000000
1003,-1160.000000
1004,920.000000
1005,-920.000000
1006,40.000000
1007,360.000000
1008,-1080.000000
1009,1000.000000
1010,-1080.000000
1011,360.000000
1012,-40.000000
1013,-840.000000
1014,1000.000000
1015,-1240.000000
1016,680.000000
1017,-440.000000
1018,-440.000000
1019,680.000000
1020,-1240.000000
1021,1000.000000
1022,-920.000000
1023,280.000000
1024,120.000000
1025,-840.000000
1026,920.000000
1027,-1240.000000
1028,840.000000
1029,-680.000000
1030,-120.000000
1031,360.000000
1032,-1080.000000
1033,1000.000000
1034,-1240.000000
1035,760.000000
1036,-680.000000
1037,-120.000000
1038,360.000000
1039,-1000.000000
1040,920.000000
1041,-1240.000000
1042,840.000000
1043,-840.000000
1044,40.000000
1045,-40.000000
1046,-760.000000
1047,840.000000
1048,-1240.000000
1049,1000.000000
1050,-1160.000000
1051,600.000000
1052,-520.000000
1053,-200.000000
1054,280.000000
1055,-920.000000
1056,840.000000
1057,-1240.000000
1058,1000.000000
1059,-1160.000000
1060,680.000000
1061,-680.000000
1062,40.000000
1063,40.000000
1064,-680.000000
1065,680.000000
1066,-1160.000000
1067,1000.000000
1068,-1240.000000
1069,1000.000000
1070,-1080.000000
1071,600.000000
1072,-680.000000
1073,40.000000
1074,-120.000000
1075,-520.000000
1076,520.000000
1077,-1000.000000
1078,840.000000
1079,-1240.000000
1080,1080.000000
1081,-1240.000000
1082,1000.000000
1083,-1160.000000
1084,760.000000
1085,-840.000000
1086,440.000000
1087,-520.000000
1088,-40.000000
1089,-40.000000
1090,-440.000000
1091,360.000000
1092,-760.000000
1093,680.000000
1094,-1000.000000
1095,840.000000
1096,-1240.000000
1097,1000.000000
1098,-1240.000000
1099,1080.000000
1100,-1320.000000
1101,1000.000000
1102,-1240.000000
1103,1000.000000
1104,-1080.000000
1105,840.000000
1106,-1000.000000
1107,680.000000
1108,-920.000000
1109,600.000000
1110,-760.000000
1111,440.000000
1112,-600.000000
1113,360.000000
1114,-520.000000
1115,120.000000
1116,-440.000000
1117,40.000000
1118,-360.000000
1119,-40.000000
1120,-280.000000
1121,-40.000000
1122,-280.000000
1123,-40.000000
1124,-280.000000
1125,-40.000000
1126,-280.000000
1127,-40.000000
1128,-280.000000
1129,40.000000
1130,-360.000000
1131,120.000000
1132,-520.000000
1133,280.000000
1134,-600.000000
1135,360.000000
1136,-680.000000
1137,520.000000
1138,-840.000000
1139,680.000000
1140,-1000.000000
1141,760.000000
1142,-1080.000000
1143,920.000000
1144,-1240.000000
1145,1000.000000
1146,-1320.000000
1147,1080.000000
1148,-1320.000000
1149,1080.000000
1150,-1240.000000
1151,920.000000
1152,-1160.000000
1153,760.000000
1154,-920.000000
1155,520.000000
1156,-600.000000
1157,120.000000
1158,-200.000000
1159,-280.000000
1160,280.000000
1161,-680.000000
1162,680.000000
1163,-1080.000000
1164,1000.000000
1165,-1240.000000
1166,1080.000000
1167,-1320.000000
1168,1000.000000
1169,-1160.000000
1170,680.000000
1171,-680.000000
1172,120.000000
1173,-200.000000
1174,-440.000000
1175,440.000000
1176,-1000.000000
1177,920.000000
1178,-1320.000000
1179,1080.000000
1180,-1320.000000
1181,920.000000
1182,-920.000000
1183,440.000000
1184,-280.000000
1185,-440.000000
1186,520.000000
1187,-1000.000000
1188,1000.000000
1189,-1320.000000
1190,1080.000000
1191,-1160.000000
1192,680.000000
1193,-520.000000
1194,-200.000000
1195,360.000000
1196,-1000.000000
1197,1000.000000
1198,-1320.000000
1199,1080.000000
1200,-1080.000000
1201,520.000000
1202,-280.000000
1203,-520.000000
1204,680.000000
1205,-1240.000000
1206,1080.000000
1207,-1320.000000
1208,760.000000
1209,-600.000000
1210,-280.000000
1211,520.000000
1212,-1160.000000
1213,1080.000000
1214,-1320.000000
1215,760.000000
1216,-600.000000
1217,-280.000000
1218,600.000000
1219,-1160.000000
1220,1080.000000
1221,-1240.000000
1222,600.000000
1223,-360.000000
1224,-600.000000
1225,840.000000
1226,-1320.000000
1227,1000.000000
1228,-920.000000
1229,40.000000
1230,360.000000
1231,-1080.000000
1232,1160.000000
1233,-1240.000000
1234,600.000000
1235,-200.000000
1236,-760.000000
1237,1000.000000
1238,-1320.000000
1239,840.000000
1240,-520.000000
1241,-520.000000
1242,840.000000
1243,-1400.000000
1244,920.000000
1245,-680.000000
1246,-360.000000
1247,760.000000
1248,-1320.000000
1249,1000.000000
1250,-680.000000
